%YAML 1.1
%TAG !u! tag:unity3d.com,2011:
--- !u!74 &7400000
AnimationClip:
  m_ObjectHideFlags: 0
  m_PrefabParentObject: {fileID: 0}
  m_PrefabInternal: {fileID: 0}
  m_Name: WaterAnimation
  serializedVersion: 6
  m_Legacy: 0
  m_Compressed: 0
  m_UseHighQualityCurve: 1
  m_RotationCurves: []
  m_CompressedRotationCurves: []
  m_EulerCurves: []
  m_PositionCurves: []
  m_ScaleCurves: []
  m_FloatCurves: []
  m_PPtrCurves:
  - curve:
    - time: 0
      value: {fileID: 21300000, guid: aa66532c0125a6e458b8a3e585dd088a, type: 3}
    - time: 0.05
      value: {fileID: 21300000, guid: f56089c0e9d834d4e9c548e37abe723c, type: 3}
    - time: 0.1
      value: {fileID: 21300000, guid: eae21b6afb9812b459f674a62cab8799, type: 3}
    - time: 0.15
      value: {fileID: 21300000, guid: 37ef1a7764e10564294dc43765020e8d, type: 3}
    - time: 0.2
      value: {fileID: 21300000, guid: bbfdd23305fe8cc4e80ad6a3e6e8b4ef, type: 3}
    - time: 0.25
      value: {fileID: 21300000, guid: 29998ed77f9355045957a611404a0995, type: 3}
    - time: 0.3
      value: {fileID: 21300000, guid: 747715651b3ca8b44885afc44d2b8f17, type: 3}
    - time: 0.35
      value: {fileID: 21300000, guid: 898434d2f9a3a274d83e0a2926cc5ade, type: 3}
    - time: 0.4
      value: {fileID: 21300000, guid: f2d2518e7c0f921498a538f236ea1e68, type: 3}
    - time: 0.45
      value: {fileID: 21300000, guid: 862f97a549a351249b27f491fe9148e3, type: 3}
    - time: 0.5
      value: {fileID: 21300000, guid: 198f8be5dc3affe4da6da658dfe445c9, type: 3}
    - time: 0.55
      value: {fileID: 21300000, guid: 4d2b595679a98f242a83ed6d51819c01, type: 3}
    - time: 0.6
      value: {fileID: 21300000, guid: 3112adf36dda2474bafdb276ee0984c8, type: 3}
    - time: 0.65
      value: {fileID: 21300000, guid: dea28e8a36a4d664f9648a6dbf79b19a, type: 3}
    - time: 0.7
      value: {fileID: 21300000, guid: 07a4d15289e3ee041acb45c7ce810074, type: 3}
    - time: 0.75
      value: {fileID: 21300000, guid: 07a4d15289e3ee041acb45c7ce810074, type: 3}
    - time: 0.8
      value: {fileID: 21300000, guid: 5c469ed800b5db042963a49057f9b3aa, type: 3}
    attribute: m_Sprite
    path: 
    classID: 212
    script: {fileID: 0}
  m_SampleRate: 60
  m_WrapMode: 0
  m_Bounds:
    m_Center: {x: 0, y: 0, z: 0}
    m_Extent: {x: 0, y: 0, z: 0}
  m_ClipBindingConstant:
    genericBindings:
    - serializedVersion: 2
      path: 0
      attribute: 0
      script: {fileID: 0}
      typeID: 212
      customType: 23
      isPPtrCurve: 1
    pptrCurveMapping:
    - {fileID: 21300000, guid: aa66532c0125a6e458b8a3e585dd088a, type: 3}
    - {fileID: 21300000, guid: f56089c0e9d834d4e9c548e37abe723c, type: 3}
    - {fileID: 21300000, guid: eae21b6afb9812b459f674a62cab8799, type: 3}
    - {fileID: 21300000, guid: 37ef1a7764e10564294dc43765020e8d, type: 3}
    - {fileID: 21300000, guid: bbfdd23305fe8cc4e80ad6a3e6e8b4ef, type: 3}
    - {fileID: 21300000, guid: 29998ed77f9355045957a611404a0995, type: 3}
    - {fileID: 21300000, guid: 747715651b3ca8b44885afc44d2b8f17, type: 3}
    - {fileID: 21300000, guid: 898434d2f9a3a274d83e0a2926cc5ade, type: 3}
    - {fileID: 21300000, guid: f2d2518e7c0f921498a538f236ea1e68, type: 3}
    - {fileID: 21300000, guid: 862f97a549a351249b27f491fe9148e3, type: 3}
    - {fileID: 21300000, guid: 198f8be5dc3affe4da6da658dfe445c9, type: 3}
    - {fileID: 21300000, guid: 4d2b595679a98f242a83ed6d51819c01, type: 3}
    - {fileID: 21300000, guid: 3112adf36dda2474bafdb276ee0984c8, type: 3}
    - {fileID: 21300000, guid: dea28e8a36a4d664f9648a6dbf79b19a, type: 3}
    - {fileID: 21300000, guid: 07a4d15289e3ee041acb45c7ce810074, type: 3}
    - {fileID: 21300000, guid: 07a4d15289e3ee041acb45c7ce810074, type: 3}
    - {fileID: 21300000, guid: 5c469ed800b5db042963a49057f9b3aa, type: 3}
  m_AnimationClipSettings:
    serializedVersion: 2
    m_AdditiveReferencePoseClip: {fileID: 0}
    m_AdditiveReferencePoseTime: 0
    m_StartTime: 0
    m_StopTime: 0.81666666
    m_OrientationOffsetY: 0
    m_Level: 0
    m_CycleOffset: 0
    m_HasAdditiveReferencePose: 0
    m_LoopTime: 1
    m_LoopBlend: 0
    m_LoopBlendOrientation: 0
    m_LoopBlendPositionY: 0
    m_LoopBlendPositionXZ: 0
    m_KeepOriginalOrientation: 0
    m_KeepOriginalPositionY: 1
    m_KeepOriginalPositionXZ: 0
    m_HeightFromFeet: 0
    m_Mirror: 0
  m_EditorCurves: []
  m_EulerEditorCurves: []
  m_HasGenericRootTransform: 0
  m_HasMotionFloatCurves: 0
  m_GenerateMotionCurves: 0
  m_Events: []
