%YAML 1.1
%TAG !u! tag:unity3d.com,2011:
--- !u!74 &7400000
AnimationClip:
  m_ObjectHideFlags: 0
  m_PrefabParentObject: {fileID: 0}
  m_PrefabInternal: {fileID: 0}
  m_Name: CoinAnimation
  serializedVersion: 6
  m_Legacy: 0
  m_Compressed: 0
  m_UseHighQualityCurve: 1
  m_RotationCurves: []
  m_CompressedRotationCurves: []
  m_EulerCurves: []
  m_PositionCurves: []
  m_ScaleCurves: []
  m_FloatCurves: []
  m_PPtrCurves:
  - curve:
    - time: 0
      value: {fileID: 21300000, guid: c62676ff4cdb9a9478fed8be059267ea, type: 3}
    - time: 0.016666668
      value: {fileID: 21300002, guid: c62676ff4cdb9a9478fed8be059267ea, type: 3}
    - time: 0.033333335
      value: {fileID: 21300004, guid: c62676ff4cdb9a9478fed8be059267ea, type: 3}
    - time: 0.05
      value: {fileID: 21300006, guid: c62676ff4cdb9a9478fed8be059267ea, type: 3}
    - time: 0.06666667
      value: {fileID: 21300008, guid: c62676ff4cdb9a9478fed8be059267ea, type: 3}
    - time: 0.083333336
      value: {fileID: 21300010, guid: c62676ff4cdb9a9478fed8be059267ea, type: 3}
    - time: 0.1
      value: {fileID: 21300012, guid: c62676ff4cdb9a9478fed8be059267ea, type: 3}
    - time: 0.11666667
      value: {fileID: 21300014, guid: c62676ff4cdb9a9478fed8be059267ea, type: 3}
    - time: 0.13333334
      value: {fileID: 21300016, guid: c62676ff4cdb9a9478fed8be059267ea, type: 3}
    - time: 0.15
      value: {fileID: 21300018, guid: c62676ff4cdb9a9478fed8be059267ea, type: 3}
    - time: 0.16666667
      value: {fileID: 21300020, guid: c62676ff4cdb9a9478fed8be059267ea, type: 3}
    - time: 0.18333334
      value: {fileID: 21300022, guid: c62676ff4cdb9a9478fed8be059267ea, type: 3}
    - time: 0.2
      value: {fileID: 21300024, guid: c62676ff4cdb9a9478fed8be059267ea, type: 3}
    - time: 0.21666667
      value: {fileID: 21300026, guid: c62676ff4cdb9a9478fed8be059267ea, type: 3}
    - time: 0.23333333
      value: {fileID: 21300028, guid: c62676ff4cdb9a9478fed8be059267ea, type: 3}
    - time: 0.25
      value: {fileID: 21300030, guid: c62676ff4cdb9a9478fed8be059267ea, type: 3}
    - time: 0.26666668
      value: {fileID: 21300032, guid: c62676ff4cdb9a9478fed8be059267ea, type: 3}
    - time: 0.28333336
      value: {fileID: 21300034, guid: c62676ff4cdb9a9478fed8be059267ea, type: 3}
    - time: 0.30000004
      value: {fileID: 21300036, guid: c62676ff4cdb9a9478fed8be059267ea, type: 3}
    - time: 0.31666672
      value: {fileID: 21300038, guid: c62676ff4cdb9a9478fed8be059267ea, type: 3}
    - time: 0.3333334
      value: {fileID: 21300040, guid: c62676ff4cdb9a9478fed8be059267ea, type: 3}
    - time: 0.35000008
      value: {fileID: 21300042, guid: c62676ff4cdb9a9478fed8be059267ea, type: 3}
    - time: 0.36666676
      value: {fileID: 21300044, guid: c62676ff4cdb9a9478fed8be059267ea, type: 3}
    - time: 0.38333344
      value: {fileID: 21300046, guid: c62676ff4cdb9a9478fed8be059267ea, type: 3}
    - time: 0.40000013
      value: {fileID: 21300048, guid: c62676ff4cdb9a9478fed8be059267ea, type: 3}
    - time: 0.4166668
      value: {fileID: 21300050, guid: c62676ff4cdb9a9478fed8be059267ea, type: 3}
    - time: 0.4333335
      value: {fileID: 21300052, guid: c62676ff4cdb9a9478fed8be059267ea, type: 3}
    - time: 0.45000017
      value: {fileID: 21300054, guid: c62676ff4cdb9a9478fed8be059267ea, type: 3}
    - time: 0.46666685
      value: {fileID: 21300056, guid: c62676ff4cdb9a9478fed8be059267ea, type: 3}
    - time: 0.48333353
      value: {fileID: 21300058, guid: c62676ff4cdb9a9478fed8be059267ea, type: 3}
    attribute: m_Sprite
    path: 
    classID: 212
    script: {fileID: 0}
  m_SampleRate: 60
  m_WrapMode: 0
  m_Bounds:
    m_Center: {x: 0, y: 0, z: 0}
    m_Extent: {x: 0, y: 0, z: 0}
  m_ClipBindingConstant:
    genericBindings:
    - serializedVersion: 2
      path: 0
      attribute: 0
      script: {fileID: 0}
      typeID: 212
      customType: 23
      isPPtrCurve: 1
    pptrCurveMapping:
    - {fileID: 21300000, guid: c62676ff4cdb9a9478fed8be059267ea, type: 3}
    - {fileID: 21300002, guid: c62676ff4cdb9a9478fed8be059267ea, type: 3}
    - {fileID: 21300004, guid: c62676ff4cdb9a9478fed8be059267ea, type: 3}
    - {fileID: 21300006, guid: c62676ff4cdb9a9478fed8be059267ea, type: 3}
    - {fileID: 21300008, guid: c62676ff4cdb9a9478fed8be059267ea, type: 3}
    - {fileID: 21300010, guid: c62676ff4cdb9a9478fed8be059267ea, type: 3}
    - {fileID: 21300012, guid: c62676ff4cdb9a9478fed8be059267ea, type: 3}
    - {fileID: 21300014, guid: c62676ff4cdb9a9478fed8be059267ea, type: 3}
    - {fileID: 21300016, guid: c62676ff4cdb9a9478fed8be059267ea, type: 3}
    - {fileID: 21300018, guid: c62676ff4cdb9a9478fed8be059267ea, type: 3}
    - {fileID: 21300020, guid: c62676ff4cdb9a9478fed8be059267ea, type: 3}
    - {fileID: 21300022, guid: c62676ff4cdb9a9478fed8be059267ea, type: 3}
    - {fileID: 21300024, guid: c62676ff4cdb9a9478fed8be059267ea, type: 3}
    - {fileID: 21300026, guid: c62676ff4cdb9a9478fed8be059267ea, type: 3}
    - {fileID: 21300028, guid: c62676ff4cdb9a9478fed8be059267ea, type: 3}
    - {fileID: 21300030, guid: c62676ff4cdb9a9478fed8be059267ea, type: 3}
    - {fileID: 21300032, guid: c62676ff4cdb9a9478fed8be059267ea, type: 3}
    - {fileID: 21300034, guid: c62676ff4cdb9a9478fed8be059267ea, type: 3}
    - {fileID: 21300036, guid: c62676ff4cdb9a9478fed8be059267ea, type: 3}
    - {fileID: 21300038, guid: c62676ff4cdb9a9478fed8be059267ea, type: 3}
    - {fileID: 21300040, guid: c62676ff4cdb9a9478fed8be059267ea, type: 3}
    - {fileID: 21300042, guid: c62676ff4cdb9a9478fed8be059267ea, type: 3}
    - {fileID: 21300044, guid: c62676ff4cdb9a9478fed8be059267ea, type: 3}
    - {fileID: 21300046, guid: c62676ff4cdb9a9478fed8be059267ea, type: 3}
    - {fileID: 21300048, guid: c62676ff4cdb9a9478fed8be059267ea, type: 3}
    - {fileID: 21300050, guid: c62676ff4cdb9a9478fed8be059267ea, type: 3}
    - {fileID: 21300052, guid: c62676ff4cdb9a9478fed8be059267ea, type: 3}
    - {fileID: 21300054, guid: c62676ff4cdb9a9478fed8be059267ea, type: 3}
    - {fileID: 21300056, guid: c62676ff4cdb9a9478fed8be059267ea, type: 3}
    - {fileID: 21300058, guid: c62676ff4cdb9a9478fed8be059267ea, type: 3}
  m_AnimationClipSettings:
    serializedVersion: 2
    m_AdditiveReferencePoseClip: {fileID: 0}
    m_AdditiveReferencePoseTime: 0
    m_StartTime: 0
    m_StopTime: 0.5000002
    m_OrientationOffsetY: 0
    m_Level: 0
    m_CycleOffset: 0
    m_HasAdditiveReferencePose: 0
    m_LoopTime: 1
    m_LoopBlend: 0
    m_LoopBlendOrientation: 0
    m_LoopBlendPositionY: 0
    m_LoopBlendPositionXZ: 0
    m_KeepOriginalOrientation: 0
    m_KeepOriginalPositionY: 1
    m_KeepOriginalPositionXZ: 0
    m_HeightFromFeet: 0
    m_Mirror: 0
  m_EditorCurves: []
  m_EulerEditorCurves: []
  m_HasGenericRootTransform: 0
  m_HasMotionFloatCurves: 0
  m_GenerateMotionCurves: 0
  m_Events: []
